{
	"partitions" : [
		{
			"name" : "Top",
			"pins" : [
				{
					"name" : "Y",
					"strict" : false
				},
				{
					"name" : "D[2]",
					"strict" : false
				},
				{
					"name" : "S[1]",
					"strict" : false
				},
				{
					"name" : "D[1]",
					"strict" : false
				},
				{
					"name" : "S[0]",
					"strict" : false
				},
				{
					"name" : "D[0]",
					"strict" : false
				},
				{
					"name" : "D[3]",
					"strict" : false
				}
			]
		}
	]
}