Analysis & Synthesis report for Maquina_Estados
Tue Nov 22 11:24:05 2022
Quartus Prime Version 20.1.1 Build 720 11/11/2020 SJ Lite Edition


---------------------
; Table of Contents ;
---------------------
  1. Legal Notice
  2. Analysis & Synthesis Summary
  3. Analysis & Synthesis Settings
  4. Parallel Compilation
  5. Analysis & Synthesis Source Files Read
  6. Analysis & Synthesis Resource Usage Summary
  7. Analysis & Synthesis Resource Utilization by Entity
  8. General Register Statistics
  9. Multiplexer Restructuring Statistics (Restructuring Performed)
 10. Port Connectivity Checks: "div_frec:ent_clk_selec"
 11. Port Connectivity Checks: "div_frec:ent_clk_memoria"
 12. Port Connectivity Checks: "div_frec:ent_clk_Maquina"
 13. Port Connectivity Checks: "div_frec:ent_clk_muestreo"
 14. Post-Synthesis Netlist Statistics for Top Partition
 15. Elapsed Time Per Partition
 16. Analysis & Synthesis Messages



----------------
; Legal Notice ;
----------------
Copyright (C) 2020  Intel Corporation. All rights reserved.
Your use of Intel Corporation's design tools, logic functions 
and other software and tools, and any partner logic 
functions, and any output files from any of the foregoing 
(including device programming or simulation files), and any 
associated documentation or information are expressly subject 
to the terms and conditions of the Intel Program License 
Subscription Agreement, the Intel Quartus Prime License Agreement,
the Intel FPGA IP License Agreement, or other applicable license
agreement, including, without limitation, that your use is for
the sole purpose of programming logic devices manufactured by
Intel and sold by Intel or its authorized distributors.  Please
refer to the applicable agreement for further details, at
https://fpgasoftware.intel.com/eula.



+----------------------------------------------------------------------------------+
; Analysis & Synthesis Summary                                                     ;
+------------------------------------+---------------------------------------------+
; Analysis & Synthesis Status        ; Successful - Tue Nov 22 11:24:05 2022       ;
; Quartus Prime Version              ; 20.1.1 Build 720 11/11/2020 SJ Lite Edition ;
; Revision Name                      ; Maquina_Estados                             ;
; Top-level Entity Name              ; Principal                                   ;
; Family                             ; Cyclone IV E                                ;
; Total logic elements               ; 202                                         ;
;     Total combinational functions  ; 180                                         ;
;     Dedicated logic registers      ; 119                                         ;
; Total registers                    ; 119                                         ;
; Total pins                         ; 14                                          ;
; Total virtual pins                 ; 0                                           ;
; Total memory bits                  ; 0                                           ;
; Embedded Multiplier 9-bit elements ; 0                                           ;
; Total PLLs                         ; 0                                           ;
+------------------------------------+---------------------------------------------+


+------------------------------------------------------------------------------------------------------------+
; Analysis & Synthesis Settings                                                                              ;
+------------------------------------------------------------------+--------------------+--------------------+
; Option                                                           ; Setting            ; Default Value      ;
+------------------------------------------------------------------+--------------------+--------------------+
; Device                                                           ; EP4CE10E22C8       ;                    ;
; Top-level entity name                                            ; Principal          ; Maquina_Estados    ;
; Family name                                                      ; Cyclone IV E       ; Cyclone V          ;
; Use smart compilation                                            ; Off                ; Off                ;
; Enable parallel Assembler and Timing Analyzer during compilation ; On                 ; On                 ;
; Enable compact report table                                      ; Off                ; Off                ;
; Restructure Multiplexers                                         ; Auto               ; Auto               ;
; Create Debugging Nodes for IP Cores                              ; Off                ; Off                ;
; Preserve fewer node names                                        ; On                 ; On                 ;
; Intel FPGA IP Evaluation Mode                                    ; Enable             ; Enable             ;
; Verilog Version                                                  ; Verilog_2001       ; Verilog_2001       ;
; VHDL Version                                                     ; VHDL_1993          ; VHDL_1993          ;
; State Machine Processing                                         ; Auto               ; Auto               ;
; Safe State Machine                                               ; Off                ; Off                ;
; Extract Verilog State Machines                                   ; On                 ; On                 ;
; Extract VHDL State Machines                                      ; On                 ; On                 ;
; Ignore Verilog initial constructs                                ; Off                ; Off                ;
; Iteration limit for constant Verilog loops                       ; 5000               ; 5000               ;
; Iteration limit for non-constant Verilog loops                   ; 250                ; 250                ;
; Add Pass-Through Logic to Inferred RAMs                          ; On                 ; On                 ;
; Infer RAMs from Raw Logic                                        ; On                 ; On                 ;
; Parallel Synthesis                                               ; On                 ; On                 ;
; DSP Block Balancing                                              ; Auto               ; Auto               ;
; NOT Gate Push-Back                                               ; On                 ; On                 ;
; Power-Up Don't Care                                              ; On                 ; On                 ;
; Remove Redundant Logic Cells                                     ; Off                ; Off                ;
; Remove Duplicate Registers                                       ; On                 ; On                 ;
; Ignore CARRY Buffers                                             ; Off                ; Off                ;
; Ignore CASCADE Buffers                                           ; Off                ; Off                ;
; Ignore GLOBAL Buffers                                            ; Off                ; Off                ;
; Ignore ROW GLOBAL Buffers                                        ; Off                ; Off                ;
; Ignore LCELL Buffers                                             ; Off                ; Off                ;
; Ignore SOFT Buffers                                              ; On                 ; On                 ;
; Limit AHDL Integers to 32 Bits                                   ; Off                ; Off                ;
; Optimization Technique                                           ; Balanced           ; Balanced           ;
; Carry Chain Length                                               ; 70                 ; 70                 ;
; Auto Carry Chains                                                ; On                 ; On                 ;
; Auto Open-Drain Pins                                             ; On                 ; On                 ;
; Perform WYSIWYG Primitive Resynthesis                            ; Off                ; Off                ;
; Auto ROM Replacement                                             ; On                 ; On                 ;
; Auto RAM Replacement                                             ; On                 ; On                 ;
; Auto DSP Block Replacement                                       ; On                 ; On                 ;
; Auto Shift Register Replacement                                  ; Auto               ; Auto               ;
; Allow Shift Register Merging across Hierarchies                  ; Auto               ; Auto               ;
; Auto Clock Enable Replacement                                    ; On                 ; On                 ;
; Strict RAM Replacement                                           ; Off                ; Off                ;
; Allow Synchronous Control Signals                                ; On                 ; On                 ;
; Force Use of Synchronous Clear Signals                           ; Off                ; Off                ;
; Auto RAM Block Balancing                                         ; On                 ; On                 ;
; Auto RAM to Logic Cell Conversion                                ; Off                ; Off                ;
; Auto Resource Sharing                                            ; Off                ; Off                ;
; Allow Any RAM Size For Recognition                               ; Off                ; Off                ;
; Allow Any ROM Size For Recognition                               ; Off                ; Off                ;
; Allow Any Shift Register Size For Recognition                    ; Off                ; Off                ;
; Use LogicLock Constraints during Resource Balancing              ; On                 ; On                 ;
; Ignore translate_off and synthesis_off directives                ; Off                ; Off                ;
; Timing-Driven Synthesis                                          ; On                 ; On                 ;
; Report Parameter Settings                                        ; On                 ; On                 ;
; Report Source Assignments                                        ; On                 ; On                 ;
; Report Connectivity Checks                                       ; On                 ; On                 ;
; Ignore Maximum Fan-Out Assignments                               ; Off                ; Off                ;
; Synchronization Register Chain Length                            ; 2                  ; 2                  ;
; Power Optimization During Synthesis                              ; Normal compilation ; Normal compilation ;
; HDL message level                                                ; Level2             ; Level2             ;
; Suppress Register Optimization Related Messages                  ; Off                ; Off                ;
; Number of Removed Registers Reported in Synthesis Report         ; 5000               ; 5000               ;
; Number of Swept Nodes Reported in Synthesis Report               ; 5000               ; 5000               ;
; Number of Inverted Registers Reported in Synthesis Report        ; 100                ; 100                ;
; Clock MUX Protection                                             ; On                 ; On                 ;
; Auto Gated Clock Conversion                                      ; Off                ; Off                ;
; Block Design Naming                                              ; Auto               ; Auto               ;
; SDC constraint protection                                        ; Off                ; Off                ;
; Synthesis Effort                                                 ; Auto               ; Auto               ;
; Shift Register Replacement - Allow Asynchronous Clear Signal     ; On                 ; On                 ;
; Pre-Mapping Resynthesis Optimization                             ; Off                ; Off                ;
; Analysis & Synthesis Message Level                               ; Medium             ; Medium             ;
; Disable Register Merging Across Hierarchies                      ; Auto               ; Auto               ;
; Resource Aware Inference For Block RAM                           ; On                 ; On                 ;
+------------------------------------------------------------------+--------------------+--------------------+


+------------------------------------------+
; Parallel Compilation                     ;
+----------------------------+-------------+
; Processors                 ; Number      ;
+----------------------------+-------------+
; Number detected on machine ; 8           ;
; Maximum allowed            ; 4           ;
;                            ;             ;
; Average used               ; 1.00        ;
; Maximum used               ; 4           ;
;                            ;             ;
; Usage by Processor         ; % Time Used ;
;     Processor 1            ; 100.0%      ;
;     Processor 2            ;   0.0%      ;
;     Processors 3-4         ;   0.0%      ;
+----------------------------+-------------+


+------------------------------------------------------------------------------------------------------------------------------------------------------+
; Analysis & Synthesis Source Files Read                                                                                                               ;
+----------------------------------+-----------------+-----------------+---------------------------------------------------------------------+---------+
; File Name with User-Entered Path ; Used in Netlist ; File Type       ; File Name with Absolute Path                                        ; Library ;
+----------------------------------+-----------------+-----------------+---------------------------------------------------------------------+---------+
; div_frec.vhd                     ; yes             ; User VHDL File  ; C:/intelFPGA_lite/20.1/projects/Maquina_Estados/div_frec.vhd        ;         ;
; JK.vhd                           ; yes             ; User VHDL File  ; C:/intelFPGA_lite/20.1/projects/Maquina_Estados/JK.vhd              ;         ;
; Memoria.vhd                      ; yes             ; User VHDL File  ; C:/intelFPGA_lite/20.1/projects/Maquina_Estados/Memoria.vhd         ;         ;
; Multiplexor.vhd                  ; yes             ; User VHDL File  ; C:/intelFPGA_lite/20.1/projects/Maquina_Estados/Multiplexor.vhd     ;         ;
; Selector.vhd                     ; yes             ; User VHDL File  ; C:/intelFPGA_lite/20.1/projects/Maquina_Estados/Selector.vhd        ;         ;
; Deco.vhd                         ; yes             ; User VHDL File  ; C:/intelFPGA_lite/20.1/projects/Maquina_Estados/Deco.vhd            ;         ;
; Principal.vhd                    ; yes             ; User VHDL File  ; C:/intelFPGA_lite/20.1/projects/Maquina_Estados/Principal.vhd       ;         ;
; Maquina_Estados.vhd              ; yes             ; User VHDL File  ; C:/intelFPGA_lite/20.1/projects/Maquina_Estados/Maquina_Estados.vhd ;         ;
; anti_rebote.vhd                  ; yes             ; User VHDL File  ; C:/intelFPGA_lite/20.1/projects/Maquina_Estados/anti_rebote.vhd     ;         ;
+----------------------------------+-----------------+-----------------+---------------------------------------------------------------------+---------+


+---------------------------------------------------------+
; Analysis & Synthesis Resource Usage Summary             ;
+---------------------------------------------+-----------+
; Resource                                    ; Usage     ;
+---------------------------------------------+-----------+
; Estimated Total logic elements              ; 202       ;
;                                             ;           ;
; Total combinational functions               ; 180       ;
; Logic element usage by number of LUT inputs ;           ;
;     -- 4 input functions                    ; 52        ;
;     -- 3 input functions                    ; 2         ;
;     -- <=2 input functions                  ; 126       ;
;                                             ;           ;
; Logic elements by mode                      ;           ;
;     -- normal mode                          ; 99        ;
;     -- arithmetic mode                      ; 81        ;
;                                             ;           ;
; Total registers                             ; 119       ;
;     -- Dedicated logic registers            ; 119       ;
;     -- I/O registers                        ; 0         ;
;                                             ;           ;
; I/O pins                                    ; 14        ;
;                                             ;           ;
; Embedded Multiplier 9-bit elements          ; 0         ;
;                                             ;           ;
; Maximum fan-out node                        ; clk~input ;
; Maximum fan-out                             ; 87        ;
; Total fan-out                               ; 723       ;
; Average fan-out                             ; 2.21      ;
+---------------------------------------------+-----------+


+----------------------------------------------------------------------------------------------------------------------------------------------------------------------------------------------------------------------------------------------+
; Analysis & Synthesis Resource Utilization by Entity                                                                                                                                                                                          ;
+----------------------------------+---------------------+---------------------------+-------------+--------------+---------+-----------+------+--------------+-----------------------------------------------+-----------------+--------------+
; Compilation Hierarchy Node       ; Combinational ALUTs ; Dedicated Logic Registers ; Memory Bits ; DSP Elements ; DSP 9x9 ; DSP 18x18 ; Pins ; Virtual Pins ; Full Hierarchy Name                           ; Entity Name     ; Library Name ;
+----------------------------------+---------------------+---------------------------+-------------+--------------+---------+-----------+------+--------------+-----------------------------------------------+-----------------+--------------+
; |Principal                       ; 180 (0)             ; 119 (0)                   ; 0           ; 0            ; 0       ; 0         ; 14   ; 0            ; |Principal                                    ; Principal       ; work         ;
;    |Deco:ent_Deco|               ; 7 (7)               ; 0 (0)                     ; 0           ; 0            ; 0       ; 0         ; 0    ; 0            ; |Principal|Deco:ent_Deco                      ; Deco            ; work         ;
;    |Maquina_Estados:ent_maquina| ; 15 (5)              ; 6 (2)                     ; 0           ; 0            ; 0       ; 0         ; 0    ; 0            ; |Principal|Maquina_Estados:ent_maquina        ; Maquina_Estados ; work         ;
;       |JK:FF0|                   ; 1 (1)               ; 1 (1)                     ; 0           ; 0            ; 0       ; 0         ; 0    ; 0            ; |Principal|Maquina_Estados:ent_maquina|JK:FF0 ; JK              ; work         ;
;       |JK:FF1|                   ; 4 (4)               ; 1 (1)                     ; 0           ; 0            ; 0       ; 0         ; 0    ; 0            ; |Principal|Maquina_Estados:ent_maquina|JK:FF1 ; JK              ; work         ;
;       |JK:FF2|                   ; 2 (2)               ; 1 (1)                     ; 0           ; 0            ; 0       ; 0         ; 0    ; 0            ; |Principal|Maquina_Estados:ent_maquina|JK:FF2 ; JK              ; work         ;
;       |JK:FF3|                   ; 3 (3)               ; 1 (1)                     ; 0           ; 0            ; 0       ; 0         ; 0    ; 0            ; |Principal|Maquina_Estados:ent_maquina|JK:FF3 ; JK              ; work         ;
;    |Memoria:ent_memoria|         ; 0 (0)               ; 16 (16)                   ; 0           ; 0            ; 0       ; 0         ; 0    ; 0            ; |Principal|Memoria:ent_memoria                ; Memoria         ; work         ;
;    |Multiplexor:ent_mul|         ; 8 (8)               ; 0 (0)                     ; 0           ; 0            ; 0       ; 0         ; 0    ; 0            ; |Principal|Multiplexor:ent_mul                ; Multiplexor     ; work         ;
;    |Selector:ent_sel|            ; 6 (6)               ; 2 (2)                     ; 0           ; 0            ; 0       ; 0         ; 0    ; 0            ; |Principal|Selector:ent_sel                   ; Selector        ; work         ;
;    |anti_rebote:btn_sentido|     ; 2 (2)               ; 4 (4)                     ; 0           ; 0            ; 0       ; 0         ; 0    ; 0            ; |Principal|anti_rebote:btn_sentido            ; anti_rebote     ; work         ;
;    |anti_rebote:btn_velocidad|   ; 2 (2)               ; 4 (4)                     ; 0           ; 0            ; 0       ; 0         ; 0    ; 0            ; |Principal|anti_rebote:btn_velocidad          ; anti_rebote     ; work         ;
;    |div_frec:ent_clk_Maquina|    ; 51 (51)             ; 29 (29)                   ; 0           ; 0            ; 0       ; 0         ; 0    ; 0            ; |Principal|div_frec:ent_clk_Maquina           ; div_frec        ; work         ;
;    |div_frec:ent_clk_muestreo|   ; 45 (45)             ; 29 (29)                   ; 0           ; 0            ; 0       ; 0         ; 0    ; 0            ; |Principal|div_frec:ent_clk_muestreo          ; div_frec        ; work         ;
;    |div_frec:ent_clk_selec|      ; 44 (44)             ; 29 (29)                   ; 0           ; 0            ; 0       ; 0         ; 0    ; 0            ; |Principal|div_frec:ent_clk_selec             ; div_frec        ; work         ;
+----------------------------------+---------------------+---------------------------+-------------+--------------+---------+-----------+------+--------------+-----------------------------------------------+-----------------+--------------+
Note: For table entries with two numbers listed, the numbers in parentheses indicate the number of resources of the given type used by the specific entity alone. The numbers listed outside of parentheses indicate the total resources of the given type used by the specific entity and all of its sub-entities in the hierarchy.


+------------------------------------------------------+
; General Register Statistics                          ;
+----------------------------------------------+-------+
; Statistic                                    ; Value ;
+----------------------------------------------+-------+
; Total registers                              ; 119   ;
; Number of registers using Synchronous Clear  ; 0     ;
; Number of registers using Synchronous Load   ; 0     ;
; Number of registers using Asynchronous Clear ; 0     ;
; Number of registers using Asynchronous Load  ; 0     ;
; Number of registers using Clock Enable       ; 0     ;
; Number of registers using Preset             ; 0     ;
+----------------------------------------------+-------+


+---------------------------------------------------------------------------------------------------------------------------------------------------+
; Multiplexer Restructuring Statistics (Restructuring Performed)                                                                                    ;
+--------------------+-----------+---------------+----------------------+------------------------+------------+-------------------------------------+
; Multiplexer Inputs ; Bus Width ; Baseline Area ; Area if Restructured ; Saving if Restructured ; Registered ; Example Multiplexer Output          ;
+--------------------+-----------+---------------+----------------------+------------------------+------------+-------------------------------------+
; 4:1                ; 4 bits    ; 8 LEs         ; 8 LEs                ; 0 LEs                  ; No         ; |Principal|Multiplexor:ent_mul|Mux2 ;
+--------------------+-----------+---------------+----------------------+------------------------+------------+-------------------------------------+


+----------------------------------------------------+
; Port Connectivity Checks: "div_frec:ent_clk_selec" ;
+-----------------+-------+----------+---------------+
; Port            ; Type  ; Severity ; Details       ;
+-----------------+-------+----------+---------------+
; nciclos[12..10] ; Input ; Info     ; Stuck at VCC  ;
; nciclos[31..16] ; Input ; Info     ; Stuck at GND  ;
; nciclos[14..13] ; Input ; Info     ; Stuck at GND  ;
; nciclos[9..7]   ; Input ; Info     ; Stuck at GND  ;
; nciclos[5..0]   ; Input ; Info     ; Stuck at GND  ;
; nciclos[15]     ; Input ; Info     ; Stuck at VCC  ;
; nciclos[6]      ; Input ; Info     ; Stuck at VCC  ;
+-----------------+-------+----------+---------------+


+---------------------------------------------------------------------------------------------------------------------------+
; Port Connectivity Checks: "div_frec:ent_clk_memoria"                                                                      ;
+-----------------+--------+----------+-------------------------------------------------------------------------------------+
; Port            ; Type   ; Severity ; Details                                                                             ;
+-----------------+--------+----------+-------------------------------------------------------------------------------------+
; nciclos[20..16] ; Input  ; Info     ; Stuck at VCC                                                                        ;
; nciclos[12..9]  ; Input  ; Info     ; Stuck at VCC                                                                        ;
; nciclos[31..23] ; Input  ; Info     ; Stuck at GND                                                                        ;
; nciclos[8..5]   ; Input  ; Info     ; Stuck at GND                                                                        ;
; nciclos[3..0]   ; Input  ; Info     ; Stuck at GND                                                                        ;
; nciclos[22]     ; Input  ; Info     ; Stuck at VCC                                                                        ;
; nciclos[21]     ; Input  ; Info     ; Stuck at GND                                                                        ;
; nciclos[15]     ; Input  ; Info     ; Stuck at GND                                                                        ;
; nciclos[14]     ; Input  ; Info     ; Stuck at VCC                                                                        ;
; nciclos[13]     ; Input  ; Info     ; Stuck at GND                                                                        ;
; nciclos[4]      ; Input  ; Info     ; Stuck at VCC                                                                        ;
; f               ; Output ; Info     ; Connected to dangling logic. Logic that only feeds a dangling port will be removed. ;
+-----------------+--------+----------+-------------------------------------------------------------------------------------+


+------------------------------------------------------+
; Port Connectivity Checks: "div_frec:ent_clk_Maquina" ;
+-----------------+-------+----------+-----------------+
; Port            ; Type  ; Severity ; Details         ;
+-----------------+-------+----------+-----------------+
; nciclos[22..18] ; Input ; Info     ; Stuck at VCC    ;
; nciclos[14..11] ; Input ; Info     ; Stuck at VCC    ;
; nciclos[31..25] ; Input ; Info     ; Stuck at GND    ;
; nciclos[10..7]  ; Input ; Info     ; Stuck at GND    ;
; nciclos[5..0]   ; Input ; Info     ; Stuck at GND    ;
; nciclos[24]     ; Input ; Info     ; Stuck at VCC    ;
; nciclos[23]     ; Input ; Info     ; Stuck at GND    ;
; nciclos[17]     ; Input ; Info     ; Stuck at GND    ;
; nciclos[16]     ; Input ; Info     ; Stuck at VCC    ;
; nciclos[15]     ; Input ; Info     ; Stuck at GND    ;
; nciclos[6]      ; Input ; Info     ; Stuck at VCC    ;
+-----------------+-------+----------+-----------------+


+-------------------------------------------------------+
; Port Connectivity Checks: "div_frec:ent_clk_muestreo" ;
+----------------+-------+----------+-------------------+
; Port           ; Type  ; Severity ; Details           ;
+----------------+-------+----------+-------------------+
; nciclos[8..4]  ; Input ; Info     ; Stuck at VCC      ;
; nciclos[31..9] ; Input ; Info     ; Stuck at GND      ;
; nciclos[1..0]  ; Input ; Info     ; Stuck at GND      ;
; nciclos[3]     ; Input ; Info     ; Stuck at GND      ;
; nciclos[2]     ; Input ; Info     ; Stuck at VCC      ;
+----------------+-------+----------+-------------------+


+-----------------------------------------------------+
; Post-Synthesis Netlist Statistics for Top Partition ;
+-----------------------+-----------------------------+
; Type                  ; Count                       ;
+-----------------------+-----------------------------+
; boundary_port         ; 14                          ;
; cycloneiii_ff         ; 119                         ;
;     plain             ; 119                         ;
; cycloneiii_lcell_comb ; 181                         ;
;     arith             ; 81                          ;
;         2 data inputs ; 81                          ;
;     normal            ; 100                         ;
;         1 data inputs ; 7                           ;
;         2 data inputs ; 39                          ;
;         3 data inputs ; 2                           ;
;         4 data inputs ; 52                          ;
;                       ;                             ;
; Max LUT depth         ; 4.40                        ;
; Average LUT depth     ; 3.33                        ;
+-----------------------+-----------------------------+


+-------------------------------+
; Elapsed Time Per Partition    ;
+----------------+--------------+
; Partition Name ; Elapsed Time ;
+----------------+--------------+
; Top            ; 00:00:00     ;
+----------------+--------------+


+-------------------------------+
; Analysis & Synthesis Messages ;
+-------------------------------+
Info: *******************************************************************
Info: Running Quartus Prime Analysis & Synthesis
    Info: Version 20.1.1 Build 720 11/11/2020 SJ Lite Edition
    Info: Processing started: Tue Nov 22 11:23:56 2022
Info: Command: quartus_map --read_settings_files=on --write_settings_files=off Maquina_Estados -c Maquina_Estados
Warning (18236): Number of processors has not been specified which may cause overloading on shared machines.  Set the global assignment NUM_PARALLEL_PROCESSORS in your QSF to an appropriate value for best performance.
Info (20030): Parallel compilation is enabled and will use 4 of the 4 processors detected
Info (12021): Found 2 design units, including 1 entities, in source file div_frec.vhd
    Info (12022): Found design unit 1: div_frec-divisor File: C:/intelFPGA_lite/20.1/projects/Maquina_Estados/div_frec.vhd Line: 20
    Info (12023): Found entity 1: div_frec File: C:/intelFPGA_lite/20.1/projects/Maquina_Estados/div_frec.vhd Line: 7
Info (12021): Found 2 design units, including 1 entities, in source file jk.vhd
    Info (12022): Found design unit 1: JK-ciclo File: C:/intelFPGA_lite/20.1/projects/Maquina_Estados/JK.vhd Line: 15
    Info (12023): Found entity 1: JK File: C:/intelFPGA_lite/20.1/projects/Maquina_Estados/JK.vhd Line: 7
Info (12021): Found 2 design units, including 1 entities, in source file contador.vhd
    Info (12022): Found design unit 1: Contador-contar File: C:/intelFPGA_lite/20.1/projects/Maquina_Estados/Contador.vhd Line: 14
    Info (12023): Found entity 1: Contador File: C:/intelFPGA_lite/20.1/projects/Maquina_Estados/Contador.vhd Line: 7
Info (12021): Found 2 design units, including 1 entities, in source file memoria.vhd
    Info (12022): Found design unit 1: Memoria-memorizar File: C:/intelFPGA_lite/20.1/projects/Maquina_Estados/Memoria.vhd Line: 15
    Info (12023): Found entity 1: Memoria File: C:/intelFPGA_lite/20.1/projects/Maquina_Estados/Memoria.vhd Line: 7
Info (12021): Found 2 design units, including 1 entities, in source file d.vhd
    Info (12022): Found design unit 1: D-state File: C:/intelFPGA_lite/20.1/projects/Maquina_Estados/D.vhd Line: 15
    Info (12023): Found entity 1: D File: C:/intelFPGA_lite/20.1/projects/Maquina_Estados/D.vhd Line: 7
Info (12021): Found 2 design units, including 1 entities, in source file multiplexor.vhd
    Info (12022): Found design unit 1: Multiplexor-seleccion File: C:/intelFPGA_lite/20.1/projects/Maquina_Estados/Multiplexor.vhd Line: 17
    Info (12023): Found entity 1: Multiplexor File: C:/intelFPGA_lite/20.1/projects/Maquina_Estados/Multiplexor.vhd Line: 7
Info (12021): Found 2 design units, including 1 entities, in source file selector.vhd
    Info (12022): Found design unit 1: Selector-seleccion File: C:/intelFPGA_lite/20.1/projects/Maquina_Estados/Selector.vhd Line: 16
    Info (12023): Found entity 1: Selector File: C:/intelFPGA_lite/20.1/projects/Maquina_Estados/Selector.vhd Line: 7
Info (12021): Found 2 design units, including 1 entities, in source file deco.vhd
    Info (12022): Found design unit 1: Deco-decodificar File: C:/intelFPGA_lite/20.1/projects/Maquina_Estados/Deco.vhd Line: 16
    Info (12023): Found entity 1: Deco File: C:/intelFPGA_lite/20.1/projects/Maquina_Estados/Deco.vhd Line: 7
Info (12021): Found 2 design units, including 1 entities, in source file principal.vhd
    Info (12022): Found design unit 1: Principal-func File: C:/intelFPGA_lite/20.1/projects/Maquina_Estados/Principal.vhd Line: 16
    Info (12023): Found entity 1: Principal File: C:/intelFPGA_lite/20.1/projects/Maquina_Estados/Principal.vhd Line: 7
Info (12021): Found 2 design units, including 1 entities, in source file maquina_estados.vhd
    Info (12022): Found design unit 1: Maquina_Estados-cambio File: C:/intelFPGA_lite/20.1/projects/Maquina_Estados/Maquina_Estados.vhd Line: 15
    Info (12023): Found entity 1: Maquina_Estados File: C:/intelFPGA_lite/20.1/projects/Maquina_Estados/Maquina_Estados.vhd Line: 7
Info (12021): Found 2 design units, including 1 entities, in source file anti_rebote.vhd
    Info (12022): Found design unit 1: anti_rebote-registro File: C:/intelFPGA_lite/20.1/projects/Maquina_Estados/anti_rebote.vhd Line: 27
    Info (12023): Found entity 1: anti_rebote File: C:/intelFPGA_lite/20.1/projects/Maquina_Estados/anti_rebote.vhd Line: 11
Info (12127): Elaborating entity "Principal" for the top level hierarchy
Warning (10036): Verilog HDL or VHDL warning at Principal.vhd(18): object "clk_memoria" assigned a value but never read File: C:/intelFPGA_lite/20.1/projects/Maquina_Estados/Principal.vhd Line: 18
Warning (10540): VHDL Signal Declaration warning at Principal.vhd(19): used explicit default value for signal "ciclosMuestreo" because signal was never assigned a value File: C:/intelFPGA_lite/20.1/projects/Maquina_Estados/Principal.vhd Line: 19
Warning (10540): VHDL Signal Declaration warning at Principal.vhd(20): used explicit default value for signal "ciclosMaquina" because signal was never assigned a value File: C:/intelFPGA_lite/20.1/projects/Maquina_Estados/Principal.vhd Line: 20
Warning (10540): VHDL Signal Declaration warning at Principal.vhd(21): used explicit default value for signal "ciclosMemoria" because signal was never assigned a value File: C:/intelFPGA_lite/20.1/projects/Maquina_Estados/Principal.vhd Line: 21
Warning (10540): VHDL Signal Declaration warning at Principal.vhd(22): used explicit default value for signal "ciclosSelec" because signal was never assigned a value File: C:/intelFPGA_lite/20.1/projects/Maquina_Estados/Principal.vhd Line: 22
Info (12128): Elaborating entity "div_frec" for hierarchy "div_frec:ent_clk_muestreo" File: C:/intelFPGA_lite/20.1/projects/Maquina_Estados/Principal.vhd Line: 109
Info (12128): Elaborating entity "anti_rebote" for hierarchy "anti_rebote:btn_sentido" File: C:/intelFPGA_lite/20.1/projects/Maquina_Estados/Principal.vhd Line: 115
Warning (10492): VHDL Process Statement warning at anti_rebote.vhd(56): signal "reg" is read inside the Process Statement but isn't in the Process Statement's sensitivity list File: C:/intelFPGA_lite/20.1/projects/Maquina_Estados/anti_rebote.vhd Line: 56
Info (12128): Elaborating entity "Maquina_Estados" for hierarchy "Maquina_Estados:ent_maquina" File: C:/intelFPGA_lite/20.1/projects/Maquina_Estados/Principal.vhd Line: 118
Info (12128): Elaborating entity "JK" for hierarchy "Maquina_Estados:ent_maquina|JK:FF0" File: C:/intelFPGA_lite/20.1/projects/Maquina_Estados/Maquina_Estados.vhd Line: 63
Info (12128): Elaborating entity "Memoria" for hierarchy "Memoria:ent_memoria" File: C:/intelFPGA_lite/20.1/projects/Maquina_Estados/Principal.vhd Line: 120
Info (12128): Elaborating entity "Multiplexor" for hierarchy "Multiplexor:ent_mul" File: C:/intelFPGA_lite/20.1/projects/Maquina_Estados/Principal.vhd Line: 122
Info (12128): Elaborating entity "Selector" for hierarchy "Selector:ent_sel" File: C:/intelFPGA_lite/20.1/projects/Maquina_Estados/Principal.vhd Line: 124
Info (12128): Elaborating entity "Deco" for hierarchy "Deco:ent_Deco" File: C:/intelFPGA_lite/20.1/projects/Maquina_Estados/Principal.vhd Line: 126
Info (286030): Timing-Driven Synthesis is running
Info (16010): Generating hard_block partition "hard_block:auto_generated_inst"
    Info (16011): Adding 0 node(s), including 0 DDIO, 0 PLL, 0 transceiver and 0 LCELL
Info (21057): Implemented 216 device resources after synthesis - the final resource count might be different
    Info (21058): Implemented 3 input pins
    Info (21059): Implemented 11 output pins
    Info (21061): Implemented 202 logic cells
Info: Quartus Prime Analysis & Synthesis was successful. 0 errors, 7 warnings
    Info: Peak virtual memory: 4789 megabytes
    Info: Processing ended: Tue Nov 22 11:24:05 2022
    Info: Elapsed time: 00:00:09
    Info: Total CPU time (on all processors): 00:00:22


